…
```
## # A tibble: 21 × 15
##       ID    genotype       germ  ugly     petals   anthesis      final
##    <int>       <chr>     <date> <lgl>     <date>     <date>     <date>
## 1      1       GV_WT 2017-02-17 FALSE 2017-04-03 2017-04-08 2017-04-16
## 2      2       GV_WT 2017-02-17 FALSE 2017-04-05 2017-04-09 2017-04-19
## 3      3       GV_WT 2017-02-17 FALSE 2017-04-05 2017-04-09 2017-04-16
## 4      4 ELF3_mutant 2017-02-17 FALSE 2017-04-13 2017-04-15 2017-04-24
## 5      5 ELF3_mutant 2017-02-17  TRUE 2017-04-22 2017-04-26 2017-05-04
## 6      6 ELF3_mutant 2017-02-17 FALSE 2017-04-12 2017-04-16 2017-04-25
## 7      7       GV_WT 2017-02-17 FALSE 2017-04-06 2017-04-10 2017-04-19
## 8      8       GV_WT 2017-02-17 FALSE 2017-04-06 2017-04-09 2017-04-19
## 9      9       GV_WT 2017-02-17 FALSE 2017-04-12 2017-04-16 2017-04-23
## 10    10 ELF3_mutant 2017-02-17 FALSE 2017-04-13 2017-04-16 2017-04-25
## # ... with 11 more rows, and 8 more variables: Head_diameter <dbl>,
## #   final_height <dbl>, internodes <int>, leaves <int>, stem_circ_1 <dbl>,
## #   stem_circ_2 <dbl>, stem_circ_3 <dbl>, stem_circ_4 <dbl>
```
…
